{
	"fileVersion": 1,
	"versions": {
		"derelict-il": "1.0.1",
		"glamour": "1.0.1",
		"derelict-assimp3": "1.3.0",
		"derelict-util": "2.0.6",
		"gl3n": "1.3.1",
		"derelict-gl3": "1.0.19",
		"derelict-sdl2": "2.0.2"
	}
}
